Untitled
…
## Warning: funs() is soft deprecated as of dplyr 0.8.0
## please use list() instead
## 
## # Before:
## funs(name = f(.)
## 
## # After: 
## list(name = ~f(.))
## This warning is displayed once per session.

colnames(cards_df) <- c("tur","kk_ia","bk_ia", "kk_it","bk_it")                                                                                                                    
cards_df

## # A tibble: 26 x 5
##    tur                                       kk_ia    bk_ia kk_it  bk_it
##    <chr>                                     <dbl>    <dbl> <dbl>  <dbl>
##  1 ARABA KIRALAMA                           292290    57920  158.  12.5 
##  2 ARA KIRALAMA-SATIS/SERVIS/YEDEK PARA  2725497   540511 1920. 100.  
##  3 BENZIN VE YAKIT ISTASYONLARI           25260026  8000259 4641. 567.  
##  4 BIREYSEL EMEKLILIK                      2582916      527  668.   0.19
##  5 ESITLI GIDA                           24041009 12196630 3484. 478.  
##  6 DOGRUDAN PAZARLAMA                       973180    24216  719.   5.66
##  7 EGITIM / KIRTASIYE / OFIS MALZEMELERI   5368531  2203468 1444. 154.  
##  8 ELEKTRIK-ELEKTRONIK ESYA, BILGISAYAR    7016143  1933429 2985. 298.  
##  9 GIYIM VE AKSESUAR                      25171042  8781408 3893. 870.  
## 10 HAVAYOLLARI                             1974862   347591 1013. 268.  
## # ... with 16 more rows

cards_df %>% arrange(desc(kk_ia)) %>% slice (1:5) %>% select(tur, kk_ia)

## # A tibble: 5 x 2
##   tur                               kk_ia
##   <chr>                             <dbl>
## 1 MARKET VE ALISVERIS MERKEZLERI 87585116
## 2 YEMEK                          34477734
## 3 BENZIN VE YAKIT ISTASYONLARI   25260026
## 4 GIYIM VE AKSESUAR              25171042
## 5 ESITLI GIDA                   24041009

cards_df %>% mutate(kk_br= kk_it* 10^6/kk_ia) %>% select(tur,kk_br) 

## # A tibble: 26 x 2
##    tur                                    kk_br
##    <chr>                                  <dbl>
##  1 ARABA KIRALAMA                          542.
##  2 ARA KIRALAMA-SATIS/SERVIS/YEDEK PARA  705.
##  3 BENZIN VE YAKIT ISTASYONLARI            184.
##  4 BIREYSEL EMEKLILIK                      259.
##  5 ESITLI GIDA                            145.
##  6 DOGRUDAN PAZARLAMA                      739.
##  7 EGITIM / KIRTASIYE / OFIS MALZEMELERI   269.
##  8 ELEKTRIK-ELEKTRONIK ESYA, BILGISAYAR    425.
##  9 GIYIM VE AKSESUAR                       155.
## 10 HAVAYOLLARI                             513.
## # ... with 16 more rows
…
